…
<!-- end list -->

``` r
demo_tri <- sqldf(
        "SELECT d.*, t.tri_mmol, t.tri_mgdl
         FROM demo_clean AS d
         LEFT JOIN tri_clean AS t
         ON d.seqn = t.seqn
         WHERE tri_mmol IS NOT NULL OR tri_mgdl IS NOT NULL") %>% 
    as_tibble()
demo_tri
```

    ## # A tibble: 2,990 x 9
    ##     seqn   age race  pregnant household_income family_income gender tri_mmol
    ##    <int> <int> <fct> <chr>               <int>         <int> <fct>     <dbl>
    ##  1 62161    22 3     <NA>                   14            14 1         0.948
    ##  2 62164    44 3     2                       8             8 2         0.632
    ##  3 62165    14 4     <NA>                    4             4 2         0.802
    ##  4 62169    21 6     <NA>                    2             2 1         0.881
    ##  5 62170    15 7     <NA>                   15            15 1         0.497
    ##  6 62171    14 1     <NA>                    9             9 1         0.429
    ##  7 62172    43 4     2                       5             5 2         1.59 
    ##  8 62177    51 6     <NA>                   99            77 1         1.42 
    ##  9 62178    80 3     <NA>                    1             1 1         1.13 
    ## 10 62184    26 4     <NA>                   15            15 1         0.452
    ##    tri_mgdl
    ##       <int>
    ##  1       84
    ##  2       56
    ##  3       71
    ##  4       78
    ##  5       44
    ##  6       38
    ##  7      141
    ##  8      126
    ##  9      100
    ## 10       40
    ## # … with 2,980 more rows
